{"_meta":{"success":true,"code":200,"message":"OK. Everything worked as expected.","totalCount":1621,"pageCount":82,"currentPage":1,"perPage":20,"rateLimit":{"limit":30,"remaining":29,"reset":2}},"result":[{"id":"1","first_name":"Retha","last_name":"Kshlerin","gender":"female","dob":"1956-07-16","email":"ahartmann@example.org","phone":"825.639.7226 x6989","website":"http://cole.com/quos-nam-accusantium-perspiciatis-maiores.html","address":"356 Devyn Curve\nPredovicbury, NH 06218","status":"inactive","_links":{"self":{"href":"https://gorest.co.in/public-api/users/1"},"edit":{"href":"https://gorest.co.in/public-api/users/1"},"avatar":{"href":"https://lorempixel.com/250/250/people/?24570"}}},{"id":"2","first_name":"Kaley","last_name":"Armstrong","gender":"male","dob":"1962-05-23","email":"kylee.mayer@example.com","phone":"1-528-231-0594 x586","website":"http://jenkins.net/ut-eum-rerum-non-explicabo-optio-provident-voluptatem-perspiciatis","address":"526 Carroll Ferry Apt. 487\nPort Edwinaburgh, TN 05478-8714","status":"active","_links":{"self":{"href":"https://gorest.co.in/public-api/users/2"},"edit":{"href":"https://gorest.co.in/public-api/users/2"},"avatar":{"href":"https://lorempixel.com/250/250/people/?63397"}}},{"id":"3","first_name":"Tania","last_name":"Kuphal","gender":"female","dob":"1991-03-13","email":"mayert.ida@example.org","phone":"374-790-4779 x2181","website":"http://www.durgan.com/possimus-debitis-suscipit-sunt-est-dolorem-praesentium-officia","address":"54733 Robel Centers\nNorth Deronfurt, AK 17014-8828","status":"active","_links":{"self":{"href":"https://gorest.co.in/public-api/users/3"},"edit":{"href":"https://gorest.co.in/public-api/users/3"},"avatar":{"href":"https://lorempixel.com/250/250/people/?35244"}}},{"id":"4","first_name":"Arturo","last_name":"Legros","gender":"male","dob":"1949-12-02","email":"andreane28@example.net","phone":"264-643-0189 x9392","website":"https://www.carroll.com/aut-illum-in-consectetur-facilis","address":"221 Kathleen Spur\nDayanastad, VT 31095-7708","status":"inactive","_links":{"self":{"href":"https://gorest.co.in/public-api/users/4"},"edit":{"href":"https://gorest.co.in/public-api/users/4"},"avatar":{"href":"https://lorempixel.com/250/250/people/?16711"}}},{"id":"5","first_name":"Dan","last_name":"Medhurst","gender":"male","dob":"1967-03-12","email":"kaci.zieme@example.net","phone":"907-968-9666 x571","website":"http://willms.com/et-accusamus-illo-voluptatem-repellat-ullam-facere-natus-aut","address":"782 Eichmann Walks Apt. 825\nNorth Myrtlechester, WI 16165-7744","status":"inactive","_links":{"self":{"href":"https://gorest.co.in/public-api/users/5"},"edit":{"href":"https://gorest.co.in/public-api/users/5"},"avatar":{"href":"https://lorempixel.com/250/250/people/?58992"}}},{"id":"6","first_name":"Anne","last_name":"Gulgowski","gender":"female","dob":"1950-08-01","email":"lavada.jast@example.net","phone":"953.242.6943 x638","website":"http://reinger.info/blanditiis-praesentium-dolorum-ut-excepturi-repellat-dolores","address":"560 Bernhard Mountain Suite 861\nOrtizshire, LA 98795-5885","status":"inactive","_links":{"self":{"href":"https://gorest.co.in/public-api/users/6"},"edit":{"href":"https://gorest.co.in/public-api/users/6"},"avatar":{"href":"https://lorempixel.com/250/250/people/?62178"}}},{"id":"7","first_name":"Jessy","last_name":"Hill","gender":"male","dob":"1935-03-13","email":"henry.mitchell@example.com","phone":"+1-349-728-0142","website":"https://lueilwitz.info/nostrum-et-cupiditate-qui-quaerat-optio-ab-at-amet.html","address":"243 Gulgowski Lock\nWest Rosamondland, VT 57136-5964","status":"active","_links":{"self":{"href":"https://gorest.co.in/public-api/users/7"},"edit":{"href":"https://gorest.co.in/public-api/users/7"},"avatar":{"href":"https://lorempixel.com/250/250/people/?19160"}}},{"id":"8","first_name":"Gudrun","last_name":"Sipes","gender":"female","dob":"1964-05-13","email":"dana35@example.net","phone":"702.722.7992","website":"https://www.oconnell.com/nobis-dolor-quam-quasi-eum-fuga-ducimus-ut","address":"9517 Frami Fort\nNew Alainaton, WY 34062-9426","status":"inactive","_links":{"self":{"href":"https://gorest.co.in/public-api/users/8"},"edit":{"href":"https://gorest.co.in/public-api/users/8"},"avatar":{"href":"https://lorempixel.com/250/250/people/?52343"}}},{"id":"9","first_name":"Domingo","last_name":"Hickle","gender":"male","dob":"1989-08-17","email":"metz.francisco@example.org","phone":"362.239.9412","website":"http://wiza.biz/","address":"645 Mayra Isle\nEast Bettie, NC 82017-1843","status":"active","_links":{"self":{"href":"https://gorest.co.in/public-api/users/9"},"edit":{"href":"https://gorest.co.in/public-api/users/9"},"avatar":{"href":"https://lorempixel.com/250/250/people/?35885"}}},{"id":"10","first_name":"Kane","last_name":"Schamberger","gender":"male","dob":"1958-06-16","email":"janelle88@example.net","phone":"+1-402-874-6593","website":"https://oreilly.biz/inventore-ipsa-porro-voluptates-amet-ut-nesciunt-rerum.html","address":"85288 Dietrich Summit Apt. 106\nNorth Raeburgh, LA 47259-8932","status":"inactive","_links":{"self":{"href":"https://gorest.co.in/public-api/users/10"},"edit":{"href":"https://gorest.co.in/public-api/users/10"},"avatar":{"href":"https://lorempixel.com/250/250/people/?20859"}}},{"id":"11","first_name":"Colleen","last_name":"Borer","gender":"female","dob":"1975-04-26","email":"leanna.gottlieb@example.com","phone":"309.431.2125 x8874","website":"https://www.konopelski.com/id-sint-sit-qui-delectus","address":"416 Jakubowski Park Apt. 579\nSouth Whitney, MN 18991-6579","status":"active","_links":{"self":{"href":"https://gorest.co.in/public-api/users/11"},"edit":{"href":"https://gorest.co.in/public-api/users/11"},"avatar":{"href":"https://lorempixel.com/250/250/people/?26189"}}},{"id":"12","first_name":"Betty","last_name":"Kutch","gender":"female","dob":"1969-05-05","email":"ofahey@example.net","phone":"+1.848.328.5105","website":"http://www.paucek.com/eius-fugit-voluptatum-at-et-distinctio-odit-voluptas.html","address":"8240 Hansen Manor Suite 652\nAbbotthaven, GA 33287","status":"active","_links":{"self":{"href":"https://gorest.co.in/public-api/users/12"},"edit":{"href":"https://gorest.co.in/public-api/users/12"},"avatar":{"href":"https://lorempixel.com/250/250/people/?49101"}}},{"id":"13","first_name":"Cordie","last_name":"Reichert","gender":"female","dob":"1989-07-30","email":"carolyne21@example.org","phone":"1-963-961-9827 x468","website":"https://heaney.net/consequatur-officia-nemo-minus.html","address":"17300 Emelia Mews\nSteubertown, NY 13494-8648","status":"inactive","_links":{"self":{"href":"https://gorest.co.in/public-api/users/13"},"edit":{"href":"https://gorest.co.in/public-api/users/13"},"avatar":{"href":"https://lorempixel.com/250/250/people/?43009"}}},{"id":"14","first_name":"Derrick","last_name":"Auer","gender":"male","dob":"2012-12-26","email":"dickens.tracy@example.org","phone":"1-865-553-7750","website":"http://beier.com/atque-dolorem-quo-eveniet-nesciunt.html","address":"29004 Fay Oval Suite 638\nNorth Audreanne, IN 09965-4844","status":"inactive","_links":{"self":{"href":"https://gorest.co.in/public-api/users/14"},"edit":{"href":"https://gorest.co.in/public-api/users/14"},"avatar":{"href":"https://lorempixel.com/250/250/people/?68210"}}},{"id":"15","first_name":"Pink","last_name":"Braun","gender":"female","dob":"1994-10-02","email":"casper.lennie@example.org","phone":"(360) 821-4012","website":"http://www.willms.com/nulla-non-reiciendis-autem-et-voluptatum-in","address":"715 Skiles Walks Apt. 608\nAnnabelville, NJ 41012","status":"active","_links":{"self":{"href":"https://gorest.co.in/public-api/users/15"},"edit":{"href":"https://gorest.co.in/public-api/users/15"},"avatar":{"href":"https://lorempixel.com/250/250/people/?30184"}}},{"id":"16","first_name":"Alberta","last_name":"Wintheiser","gender":"female","dob":"2006-12-23","email":"gmitchell@example.com","phone":"(715) 912-3178","website":"http://www.fisher.biz/","address":"687 Connelly Square\nEast Ressieshire, OK 46108-9359","status":"inactive","_links":{"self":{"href":"https://gorest.co.in/public-api/users/16"},"edit":{"href":"https://gorest.co.in/public-api/users/16"},"avatar":{"href":"https://lorempixel.com/250/250/people/?72496"}}},{"id":"17","first_name":"Reece","last_name":"Beahan","gender":"male","dob":"1946-03-02","email":"cwitting@example.net","phone":"+1.879.415.4305","website":"http://armstrong.net/","address":"87478 Nitzsche Parkways\nMorissetteton, UT 89899-7534","status":"inactive","_links":{"self":{"href":"https://gorest.co.in/public-api/users/17"},"edit":{"href":"https://gorest.co.in/public-api/users/17"},"avatar":{"href":"https://lorempixel.com/250/250/people/?46422"}}},{"id":"18","first_name":"Brody","last_name":"Metz","gender":"male","dob":"1957-08-17","email":"ufarrell@example.net","phone":"+1-348-207-5023","website":"http://schaefer.com/","address":"366 Keshaun Cliffs\nGermanhaven, GA 26320","status":"inactive","_links":{"self":{"href":"https://gorest.co.in/public-api/users/18"},"edit":{"href":"https://gorest.co.in/public-api/users/18"},"avatar":{"href":"https://lorempixel.com/250/250/people/?55367"}}},{"id":"19","first_name":"Elmore","last_name":"Powlowski","gender":"male","dob":"1951-09-29","email":"bernardo.oconner@example.net","phone":"712.791.6207 x18954","website":"http://ward.biz/est-perspiciatis-sit-itaque-veritatis-magnam-nostrum-delectus","address":"98810 Diana Via Apt. 427\nVirgietown, WY 40801-6378","status":"active","_links":{"self":{"href":"https://gorest.co.in/public-api/users/19"},"edit":{"href":"https://gorest.co.in/public-api/users/19"},"avatar":{"href":"https://lorempixel.com/250/250/people/?69924"}}},{"id":"20","first_name":"Elinor","last_name":"Bernhard","gender":"female","dob":"2000-09-06","email":"stanton.suzanne@example.com","phone":"249-301-3079 x59496","website":"http://quigley.com/adipisci-eaque-quia-quidem-qui-rerum-id","address":"2952 Nader Forge Suite 336\nReecechester, KY 41123","status":"active","_links":{"self":{"href":"https://gorest.co.in/public-api/users/20"},"edit":{"href":"https://gorest.co.in/public-api/users/20"},"avatar":{"href":"https://lorempixel.com/250/250/people/?23110"}}}]}
